﻿"502";"1";"Wiä machts?";NULL;"6";"0";NULL;"2012-01-04 21:33:00";"2";"3035d2f098240313893fc98b45167fa4"
"504";"1";"Tuuuuusig";NULL;"8";"0";NULL;"2012-01-05 12:11:00";"2";"dd65579ac3cae7a39ce50dd599486b5f"
"505";"1";"Hebab Télé";NULL;"6";"0";NULL;"2012-01-05 12:21:00";"2";"b380406317aeff0d8cfd40919dcc521e"
"506";"1";"nicht (t)rollen";NULL;"9";"0";NULL;"2012-01-05 13:50:00";"2";"cd0ff8a613c386f7709e2caa8afc014c"
"507";"1";"sud";NULL;"9";"0";NULL;"2012-01-05 13:51:00";"2";"07038fcf0a83ea130f5d6eb527c543f3"
"508";"1";"sone sog";NULL;"9";"0";NULL;"2012-01-05 13:51:00";"2";"b86b1754c8bc140ca7f0d32051e1a1bc"
"509";"1";"standard";NULL;"9";"0";NULL;"2012-01-05 13:53:00";"2";"a096b47eddf65bf9b4cc88d8373eecc5"
"510";"1";"pflicht";NULL;"9";"0";NULL;"2012-01-05 13:54:00";"2";"07bc6be2c8cff083fe87ef619533a693"
"511";"1";"Chilly McChills";NULL;"9";"0";NULL;"2012-01-05 13:54:00";"2";"78fc86dbcead7b0791ae8de21b74a404"
"512";"1";"Ufpassä ghäu!!!";NULL;"6";"0";NULL;"2012-01-05 14:46:00";"2";"f5fbe1efc4bc883b46706518363c083d"
"513";"1";"Findi guet";NULL;"8";"0";NULL;"2012-01-05 14:47:00";"2";"93034250a7c35e8617745946d1f7d814"
"514";"1";"xCheffo";NULL;"6";"0";NULL;"2012-01-05 14:50:00";"2";"727ec717ebecd8e99b41105e3ade4419"
"515";"1";"Krasses äm-3";NULL;"6";"0";NULL;"2012-01-05 14:50:00";"2";"abe3aac53e81f15a2f2b012aa9d9b61c"
"516";"1";"DB-Ürsu";NULL;"6";"0";NULL;"2012-01-05 14:57:00";"2";"3da912c3332cb2bc7192ccf3635ec7a8"
"517";"1";"RideShare-Fränä";NULL;"6";"0";NULL;"2012-01-05 14:58:00";"2";"58bf868d5b856fd670eb5446789e60fc"
"518";"1";"IT-Andi";NULL;"8";"0";NULL;"2012-01-05 15:03:00";"2";"1f590dfad8aadedfef225afd1f31834a"
"519";"1";"BSH-Bäsu";NULL;"8";"0";NULL;"2012-01-05 15:04:00";"2";"b4c2a5c560591f435f61ad3d0aee4286"
"520";"1";"Intertour Schtrategie";NULL;"8";"0";NULL;"2012-01-05 15:05:00";"2";"27d070eb819c19a36874b0e6ba5d6e6b"
"521";"1";"Inelah, ussselah";NULL;"8";"0";NULL;"2012-01-05 15:05:00";"2";"0fe6d9e3da2bc14db86188878a9f752d"
"522";"1";"Photosynthese";"Ist Andrea, der im &quot;Töggelä&quot; den Schuss vom Verteidiger gleich/sofort wieder aufs Tor zurückschiesst und im Idealfall ein Kontertor erzielt.";"8";"0";"2013-05-13 10:09:46";"2012-01-05 15:13:00";"2";"4b878c11e98decab1df3001e9beb78d8"
"523";"1";"Edeffo";NULL;"6";"0";NULL;"2012-01-05 15:17:00";"2";"0487434fc52705d0402360e0a8ac276f"
"524";"1";"Jäcky";NULL;"6";"0";NULL;"2012-01-05 15:17:00";"2";"3c3a7877abc75aeff9c3ca716d70c0d0"
"525";"1";"Es Share im Share? Isch ja wie Inception!";NULL;"6";"0";NULL;"2012-01-05 15:19:00";"2";"a153d3b62f4eb5d60c39e6f58ad23609"
"526";"1";"Wart schnäu, lahmi guet überlege.... NEI";NULL;"8";"0";NULL;"2012-01-05 15:20:00";"2";"c146e964e77bf2ad6e851eb8a25d0d95"
"527";"1";"Der AX-Batch isch tschuld";NULL;"8";"0";NULL;"2012-01-05 15:21:00";"2";"2e29f3ac0b3616af250ebb71b76b39a6"
"528";"1";"LP>AX";NULL;"6";"0";NULL;"2012-01-05 15:22:00";"2";"18075203c314565b1debc15437c7e5c0"
"529";"1";"Frou Coop";NULL;"6";"0";NULL;"2012-01-05 15:23:00";"2";"2aa7be0f78488f93ad85909e677cabb1"
"530";"1";"LP 2.1 ahh nei L2P1";NULL;"8";"0";NULL;"2012-01-05 15:23:00";"2";"05bb68eacf25ccfc887646c6fafe8153"
"531";"1";"Am Elmiger sini verpixlätä Screenshots!";NULL;"6";"0";NULL;"2012-01-05 15:30:00";"2";"b1a3deccb6dc3357a1f32d88d1ec1384"
"532";"1";"UNKNOWN EXEPTION";NULL;"8";"0";NULL;"2012-01-05 15:32:00";"2";"b298d60288c058b9661c4891b38554ce"
"533";"1";"Hey Andi, Mary wot imfau no eh VM";NULL;"6";"0";NULL;"2012-01-05 15:34:00";"2";"58ce1d46717fd0b4662e7ea8aa860463"
"534";"1";"English Privatunterricht";NULL;"6";"0";NULL;"2012-01-05 15:35:00";"2";"0c9cab80d0ee3adf73a355c71fa14616"
"535";"1";"Elia, organisier mau eh LAN!";NULL;"6";"0";NULL;"2012-01-05 15:37:00";"2";"4edcc661812a11e0f7bfe1895782d2e9"
"536";"1";"Andi, sibbä! sibbä! sibbä!!!";NULL;"6";"0";NULL;"2012-01-05 15:38:00";"2";"1118d4a869a424f6abaa379bc3f19cb7"
"537";"1";"commitmem";NULL;"9";"0";NULL;"2012-01-05 18:17:00";"2";"8f9f2b29728e950168dcb04cef561608"
"538";"1";"scröm";NULL;"9";"0";NULL;"2012-01-05 18:18:00";"2";"972dc5d7c149460751fd439527507f96"
"539";"1";"räffus poker rebuys";NULL;"9";"0";NULL;"2012-01-05 18:20:00";"2";"fc4d0c36a77ecb956a66af034eb71d49"
"540";"1";"BO Drache";NULL;"9";"0";NULL;"2012-01-05 18:20:00";"2";"8e67162b0f344a43e98f531235bfa422"
"541";"1";"Abbruchfest";NULL;"9";"0";NULL;"2012-01-05 18:21:00";"2";"44fff18b8606ee09cec16544f6d18cc0"
"542";"1";"Pinöps";NULL;"8";"0";NULL;"2012-01-05 20:09:00";"2";"f27a1056912a3025062b50f1d9713670"
"543";"1";"Reeeeenuaaageee";NULL;"8";"0";NULL;"2012-01-05 20:10:00";"2";"6db58dbfdeac916f409bd4800fec123a"
"544";"1";"Full-in";NULL;"8";"0";NULL;"2012-01-05 20:10:00";"2";"f61bb4d5adede8a1449215af1be50a9e"
"545";"1";"Basil und die Banane am Abbruchfest";NULL;"6";"0";NULL;"2012-01-06 06:54:00";"2";"2038e58aa960dcdd979f34135a9795f9"
"546";"1";"Suppenmittag";NULL;"6";"0";NULL;"2012-01-06 10:49:00";"2";"0c2b5b34d6513c59b2614f09413e3846"
"547";"1";"2 Girls 1 Coup-Link";NULL;"6";"0";NULL;"2012-01-06 13:17:00";"2";"5d9f5b710d1a4ebb177bcacc6c77ed40"
"548";"1";"Ehhh, Ronny...";NULL;"8";"0";NULL;"2012-01-07 07:55:00";"2";"33601e4e64c84eccc130147e045907ac"
"549";"1";"Cordonbleu usem Tramway";NULL;"8";"0";NULL;"2012-01-07 07:58:00";"2";"1f166cea42d63b338415c58c12ae6f8b"
"550";"1";"Alles löschen?";NULL;"9";"0";NULL;"2012-01-07 18:09:00";"2";"6fc21c14c37f420a1874e61aa94aaa48"
"551";"1";"so fägts!";NULL;"9";"0";NULL;"2012-01-07 18:09:00";"2";"0d9836c032bc01ba8a317237f3f14f6f"
"552";"1";"Interdispatch";NULL;"8";"0";NULL;"2012-01-08 11:18:00";"2";"d291c9de9de4bba3870b1de396e8c9dc"
"553";"1";"Z'PTV geit nid...";NULL;"8";"0";NULL;"2012-01-08 11:19:00";"2";"11ae58a3940dd998c804b7e4ce5988c9"
"554";"1";"Bisch du e ritter?";NULL;"8";"0";NULL;"2012-01-09 07:17:00";"2";"dabf64a663fd6065272e44c8a9248cd6"
"555";"1";"Porsche Cayenne - Sportwagenfan";NULL;"6";"0";NULL;"2012-01-09 08:33:00";"2";"32c6b4d05f954c1e268cc183e1d99479"
"557";"1";"Out of the box";NULL;"14";"0";NULL;"2012-01-09 08:55:00";"2";"4e73a22eee14d6515514225a80eca4d1"
"558";"1";"*** SCHISS AG";NULL;"6";"1";NULL;"2012-01-09 09:51:00";"2";"41661b3dfbb34315ecb5b6e9dd84674b"
"559";"1";"Beschti Kollegin :-?";NULL;"6";"0";NULL;"2012-01-09 11:00:00";"2";"ace6b0f44839ad8e77217b179bb72f63"
"560";"1";"Bugfree-version";NULL;"8";"0";NULL;"2012-01-09 11:02:00";"2";"0cacbdcf9638127554c53eb1901e4cde"
"561";"1";"Anna uf eh CC";NULL;"6";"0";NULL;"2012-01-09 11:04:00";"2";"5fd085472fbc55fb7dfa1eb14fe3cf57"
"562";"1";"Hallo WERNER!!!";NULL;"8";"0";NULL;"2012-01-09 11:08:00";"2";"b63fc6db6f947788f7aa19b2874e8812"
"563";"1";"Sii, Herr Baly";NULL;"8";"0";NULL;"2012-01-09 11:15:00";"2";"de91be6d8eadcd108e1adcb5fa3e7e8c"
"564";"1";"Sie, ich glaub dä brännt...";NULL;"8";"0";NULL;"2012-01-09 11:16:00";"2";"dd1dbaa6db65fd16b4e23c05178e5642"
"565";"1";"Bitzius cs map";NULL;"8";"0";NULL;"2012-01-09 18:04:00";"2";"c136d39b8e867acba6f7fc33d3a38476"
"566";"1";"Solution provider";NULL;"14";"0";NULL;"2012-01-09 19:11:00";"2";"148c8c88a32b3639f26865c526651c38"
"567";"1";"Suxor";NULL;"6";"0";NULL;"2012-01-10 08:19:00";"2";"4e378a02a739951403eef3437ab9e549"
"568";"1";"Gucci Bandana";NULL;"15";"0";NULL;"2012-01-10 10:16:00";"2";"c3cb950f64de2539ff02ec6105443987"
"569";"1";"Werner@Skype: Hallo";NULL;"6";"0";NULL;"2012-01-10 11:00:00";"2";"7abb5c0d2052f27af86fa49d7d378ce0"
"570";"1";"PTV 5-minuten";NULL;"8";"0";NULL;"2012-01-10 11:13:00";"2";"10d3c5a8d7e01d65910a62c9ce7cf756"
"571";"1";"Landi, Wandi, Gandi";NULL;"6";"0";NULL;"2012-01-10 11:22:00";"2";"f4bc5b53964300d25a0937528431009a"
"572";"1";"Ä früdu ga zieh";"Ufs WC gha";"8";"0";"2013-06-05 14:05:55";"2012-01-10 11:45:00";"2";"767a6556ba9838c0ec2aa83996930a85"
"573";"1";"Fire and forgett";NULL;"8";"0";NULL;"2012-01-10 11:46:00";"2";"ef9a1f1d1ff049ed4fc20f620a350a62"
"574";"1";"Multiball";NULL;"6";"1";NULL;"2012-01-10 15:48:00";"2";"0f3e92ad1eb7a0cd2bd882e79be83dfb"
"575";"1";"Noooo!! E M aus-ge-schiedeeen!";NULL;"14";"0";NULL;"2012-01-10 16:46:00";"2";"fdfeb68c43fdffd735f744f5fb507fd3"
"580";"1";"stächsi, lachsi, stächzäni, stichzäni, flachzäni und schwänzgi.";NULL;"6";"0";NULL;"2012-01-10 22:07:00";"2";"031b6bdcd92e3b7f96410b8250282982"
"581";"1";"Optionen Yves";NULL;"14";"0";NULL;"2012-01-11 09:20:00";"2";"d31fdd29dd439c12e9ca1c6fe74e5d74"
"582";"1";"...und schieß mich tot!";NULL;"14";"0";NULL;"2012-01-11 17:31:00";"2";"f0dbe47374951a57967de7e7c24196c7"
"583";"1";"Na ah!";NULL;"14";"0";NULL;"2012-01-11 17:38:00";"2";"7b9119b8c6f421745f13cfc78a5b7e59"
"584";"1";"Atomics";NULL;"9";"0";NULL;"2012-01-11 22:51:00";"2";"79660988512f4d109cff3f470bf3e54b"
"585";"1";"Soo Schwul!";NULL;"14";"0";NULL;"2012-01-12 05:20:00";"2";"23881e25911368300a6c3fe088f442e9"
"586";"1";"Boom Selecta!";NULL;"14";"0";NULL;"2012-01-13 04:56:00";"2";"b35945edcd14393e81806ad442c76329"
"587";"1";"Beat Zéllé";NULL;"6";"0";NULL;"2012-01-13 11:32:00";"2";"13315d468d70afa17b7fb1c06bcd17c9"
"588";"1";"Cäscher Bässu";NULL;"6";"0";NULL;"2012-01-13 17:45:00";"2";"4540206462d6b937baa46e1c2b80a3de"
"589";"1";"Multiball";NULL;"8";"0";NULL;"2012-01-14 18:29:00";"2";"65a553be805731d2cebbb1f35889e4f4"
"590";"1";"Tschaira";NULL;"14";"0";NULL;"2012-01-15 11:59:00";"2";"c469605cdac3f3f70de2139dd5d7effa"
"591";"1";"Der Leduc wo vom Raff id Wang klepft wird";NULL;"8";"0";NULL;"2012-01-16 14:55:00";"2";"08afd84a12843749299e40a5e73f02b9"
"592";"1";"I'll be Beck!";NULL;"14";"0";NULL;"2012-01-16 18:50:00";"2";"ccb3a757f89b2c14ac136e8ea95f7096"
"593";"1";"hulli@gmx.ch";NULL;"6";"0";NULL;"2012-01-18 16:43:00";"2";"89d4c32f6e129d2def088a24f7d7232c"
"594";"1";"Wieso ist morn pflicht und heute nicht?";;"6";"0";"2013-05-29 16:35:14";"2012-01-18 18:21:00";"2";"8ac781d1a17f808908af729ab94f25e5"
"596";"1";"Sufil";NULL;"8";"0";NULL;"2012-01-19 21:13:00";"2";"493590c52ce64b91964ca2085db92ae4"
"597";"1";"Sig-Sag-Sug - Ih fahrä!!!";NULL;"6";"0";NULL;"2012-01-19 22:53:00";"2";"6acff74a8ac90d9e7e3b0360115ddaae"
"599";"1";"Ja, ih lueges ah!";NULL;"6";"0";NULL;"2012-01-20 14:35:00";"2";"568b15b68279d20c9481dfb09ec56d12"
"600";"1";"Es sind keine Standards! ";NULL;"14";"0";NULL;"2012-01-20 17:55:00";"2";"b6c70801bceeb95b84860254047f7e81"
"601";"1";"Hey! Aber... Bitte!!!";NULL;"14";"0";NULL;"2012-01-21 14:45:00";"2";"e488da1b82e83633a73d1ff2ecdfa0e7"
"603";"1";"Kantonspolizei, Moser!";NULL;"14";"0";NULL;"2012-01-22 10:35:00";"2";"257cfe4b6fe42a06f850155bd1777f0e"
"604";"1";"Selecta top flop";NULL;"14";"0";NULL;"2012-01-22 13:52:00";"2";"960a9a8c6ea2e8f701adedd3769eb06b"
"605";"1";"Chillaroora!
Chills man!";NULL;"14";"0";NULL;"2012-01-22 19:19:00";"2";"cd1ce42a83105c9f699559a2a199ce27"
"606";"1";"PTV SWISS...       ...Brunner";NULL;"6";"0";NULL;"2012-01-23 11:12:00";"2";"e139e04b83c986e34b7fe992709dd65e"
"607";"1";"20Min: ""Wir pflichten aus tiefen Herzen""";NULL;"6";"0";NULL;"2012-01-23 11:19:00";"2";"32d403c12e0d0cc39619eb06e2836fee"
"608";"1";"1337Time";NULL;"6";"0";NULL;"2012-01-23 11:37:00";"2";"b57417c08d5c23f94fe9d75fa7c8878b"
"609";"1";"Carmen";NULL;"6";"0";NULL;"2012-01-23 18:07:00";"2";"39b1c45082b994150fae98d6fb21c9f8"
"610";"1";"Am Flo sini Euros!";NULL;"6";"1";NULL;"2012-01-24 10:14:00";"2";"75c2ec0a41b206b4dcb1b4cbde10d37c"
"611";"1";"Bitte eure Schulde an der Eule zahlen!!";NULL;"14";"0";NULL;"2012-01-24 17:52:00";"2";"6df02338ffd725a4bdd62ad855640c6d"
"612";"1";"Torben";NULL;"6";"0";NULL;"2012-01-24 20:00:00";"2";"5061206ee866460d99316ed822991591"
"613";"1";"Löiiiä";NULL;"6";"0";NULL;"2012-01-24 20:11:00";"2";"90eb058d0768a15a8ecb50721faca8bd"
"614";"1";"Männlich";NULL;"9";"0";NULL;"2012-01-26 21:28:00";"2";"3b5aa282e1fc9b21aebfdd87c1f39e5d"
"615";"1";"Flower power Tee für Meitschi";NULL;"9";"0";NULL;"2012-01-26 21:29:00";"2";"8a16f6a10a8b0a86006cccf8ed6dd089"
"638";"1";"Barstreet = sex and the city, gaskessel = alpha centauri im quadrat";NULL;"14";"0";NULL;"2012-01-30 05:31:00";"2";"6d50832ab3f8a2b80232025f7678bdb9"
"639";"1";"Keine Ahnung Altaa, sag einfach irgendeine Saahl!";NULL;"6";"0";NULL;"2012-01-30 07:46:00";"2";"805de4cd906232c40615a30a549370cd"
"640";"1";"Köstliches Getränk";NULL;"6";"0";NULL;"2012-01-30 10:24:00";"2";"d7b9b7a9d229e3c06cf48c3b8e0814e5"
"642";"1";"Sonnenschiessdreck!";NULL;"14";"0";NULL;"2012-01-31 10:09:00";"2";"ade295580a7e00d31ddad40639b20457"
"643";"1";"S-haare für share";NULL;"14";"0";NULL;"2012-02-01 19:17:00";"2";"e9d5af67079cd72c07bd3c9fd297ac78"
"644";"1";"Don't give up... Don't give up!";NULL;"6";"0";NULL;"2012-02-02 14:33:00";"2";"8af2c3bbd70f0de650289b4b0660b39a"
"656";"1";"The Teupelisator";NULL;"9";"0";NULL;"2012-02-03 14:48:00";"2";"8c25f09c5fb2f88a5de8e70a6f56a032"
"659";"1";"Tö1pelifloh";NULL;"8";"0";NULL;"2012-02-04 08:20:00";"2";"c8318661a349f5ab712976f934e0e70b"
"660";"1";"Dr Excel-Typ";NULL;"6";"0";NULL;"2012-02-06 12:03:00";"2";"fc101fe8ecd45a430a317d7704503bbb"
"661";"1";"Fingerabdruckscanner";NULL;"6";"0";NULL;"2012-02-06 12:08:00";"2";"c98d720988e03d32a06bd80bb12f24d6"
"662";"1";"Glas muss nach dem streichen mit Gyso Flam Sil 754 versiegelt werden";NULL;"6";"0";NULL;"2012-02-07 09:25:00";"2";"93abc11257238610799291096c9475f9"
"663";"1";"Die Heizungen von PTV...";NULL;"14";"0";NULL;"2012-02-09 08:51:00";"2";"333778ac4db047d26db35073b50e7b4c"
"664";"1";"Derbi";NULL;"14";"0";NULL;"2012-02-10 19:11:00";"2";"5bca8c4c614dfcf4535a52c047276fc4"
"665";"1";"Selecta top flop";NULL;"14";"0";NULL;"2012-02-10 19:16:00";"2";"fffbba0a8a322b7606dcb1767437f111"
"666";"1";"Dr Cässu Drache";NULL;"6";"0";NULL;"2012-02-14 10:31:00";"2";"e219bcf49f5474c66de34b54f50ced8a"
"667";"1";"Ötti Mc Ött";NULL;"6";"0";NULL;"2012-02-14 12:51:00";"2";"0af2248aa913b4a69a4d834341e31e8a"
"668";"1";"Winääämore!";NULL;"14";"0";NULL;"2012-02-25 19:09:00";"2";"d09b8fccfe00af9371007e20a47c12f3"
"669";"1";"Herrgott wo esch jetzt dä Uftrag!!!!";NULL;"14";"0";NULL;"2012-03-06 15:33:00";"2";"2c4cbfd830b126f94d5bc31a71a09830"
"670";"1";"Muess dä so töne?
Ja das isch e V8 dä muess so...";NULL;"8";"0";NULL;"2012-04-06 16:59:00";"2";"020a2c3de42175842b68f89b6d45c3b2"
"671";"1";"Ir grossä Hauä, bir Bar, der wo dr Töff steit!";"dNina wo ar Süri het gschaffet und erklärt het wo iri Bar bar";"6";"0";"2013-05-06 12:07:36";"2012-05-10 16:36:00";"2";"8e89f5c122b00b0443e1484ac4321ec2"
"672";"1";"Crystal Jake";NULL;"6";"0";NULL;"2012-05-10 17:28:00";"2";"6eead256a13478083e2d7a399ee93dcd"
"673";"1";"Note pad";NULL;"6";"0";NULL;"2012-05-10 17:59:00";"2";"fae7cced0683a508664a3f7bfb6edf3b"
"674";"1";"Nei du?";NULL;"6";"0";NULL;"2012-05-10 18:53:00";"2";"2502c74a185e46bfb53399a4db7c27e2"
"675";"1";"Grüäzi, da isch Hotline vo dä PestaGrieser AG vom Support...";NULL;"6";"0";NULL;"2012-07-30 13:41:00";"2";"b4536af40661cb927edcdb9ccb921d6a"
"676";"1";"xPlanis?";NULL;"6";"0";NULL;"2012-08-31 05:27:00";"2";"22396e1cb1deab10bc3de848fe73fbd9"
"677";"1";"Jah, gönder...";NULL;"6";"0";NULL;"2012-09-10 09:27:00";"2";"e85de0393afc7e185819b380b2359447"
"678";"1";"Überbache mit Chääs isch aues guet";NULL;"6";"0";NULL;"2012-09-14 11:24:00";"2";"4e41f66b70cbbea93fb259bd51236163"
"679";"1";"Tschau merci tschau, merci tschau";NULL;"6";"0";NULL;"2012-10-08 11:54:00";"2";"4b3b67cebe876558d3232d41435d6fc6"
"680";"1";"Mit em Outo über Militär Stifu fahre!";NULL;"6";"0";NULL;"2012-10-12 09:00:00";"2";"fd5b525624a46050e731864cc4c0f7cc"
"683";"1";"Mach mau di Chopf zuä!";NULL;"6";"0";NULL;"2013-04-18 10:28:00";"2";"4c6497fbb69cef123dd416aa166b5612"
"684";"1";"Webmail installiärä";NULL;"6";"0";NULL;"2013-04-18 10:28:00";"2";"1231ab3f30092100c7d391da88c2919b"
"686";"1";"einisch d frässe ha, zum mitnäh";NULL;"49";"0";NULL;"2013-04-18 11:06:00";"2";"3cc480c2634c2a26073eaaf72fdfcf40"
"687";"1";"Gülle Gefäs";NULL;"6";"0";NULL;"2013-04-19 08:13:00";"2";"df17ea5007673f5d2466a4121f20ae0d"
"688";"1";"Der Schumi";NULL;"8";"0";NULL;"2013-04-19 08:34:00";"2";"bbec4db99e031bd0501ec8b1f4ba2698"
"689";"2";"8db86ecf9f78b25deed0db1ba8d8aa34";NULL;"6";"0";NULL;"2013-05-05 20:52:45";"2";"be78fcbf020e1062f376337494041d28"
"697";"1";"müemer teeschtää !!";"Teste mit andi";"39";"0";NULL;"2013-05-06 07:28:32";"2";"f19f63e1f57210212661d6473c1bb98f"
"698";"1";"Eeeh Flo, tue mau SmarTour fachläch ihfüärä! ";"-Ruedi";"6";"0";NULL;"2013-05-06 07:38:46";"2";"132016392ac6bdcf77d000b98e40b391"
"699";"2";"8d09c1f0d1a390c46464b781e770ec7f";NULL;"6";"0";NULL;"2013-05-06 07:46:42";"2";"06fae65bd50044a24e0c9cb121cc3ed3"
"700";"2";"b5e88ebb18bd2fc4dfd58d7c3965571d";NULL;"6";"0";NULL;"2013-05-06 07:57:54";"2";"2c03a1ed259061b99ea641a1763b7b46"
"701";"2";"7f4a1555b27964556f79d074d20e5de6";NULL;"6";"0";NULL;"2013-05-06 07:57:59";"2";"c9f1ba1133002cc03cc07bf93a28ffd1"
"702";"2";"553cd80f4315d4266a0a6ee72d9f49a3";"Chli failet u so";"49";"1";"2013-05-06 10:41:39";"2013-05-06 08:37:07";"2";"76959b8a5d8e46a9a81680a9b64c9826"
"711";"2";"c1363c9afa61cf0ec0620afacf064df4";NULL;"6";"0";NULL;"2013-05-06 10:26:10";"2";"fdd9e462ba79afb2dc0cbc12277a9355"
"712";"1";"Easteregg Félé";;"6";"0";NULL;"2013-05-06 12:36:54";"2";"b2cec80707f9438174d99370998efd28"
"713";"1";"Webäpp";;"6";"0";NULL;"2013-05-06 12:37:27";"2";"361d768fa310aee860f90d1bff9f52db"
"714";"1";"Dä huere rucksack";"Am Felle si Rucksack wo geng bir Türe steit";"49";"0";"2013-05-06 16:17:20";"2013-05-06 12:44:08";"2";"3d0b21e4fb4a6da34da45b8604091c8e"
"715";"2";"e80edfd411f5f165f21e53a73097d2f5";NULL;"6";"0";NULL;"2013-05-06 18:43:00";"2";"b0d60cc1a7bb4559e97b462ce5271ce3"
"716";"2";"be99875365f53aacde0f59fdeeee40b1";NULL;"6";"0";NULL;"2013-05-07 08:54:51";"2";"8d0e14c0d3a7812a7bcd126735784fca"
"717";"2";"ee20732fe67fd694265d6dc530f43ab6";NULL;"6";"0";NULL;"2013-05-07 09:00:31";"2";"f3d12b0d1c9b81a4acd44606eb5eb614"
"724";"2";"5c98f66462e08a013a3cd4a428fbbec8";NULL;"6";"0";NULL;"2013-05-08 07:33:57";"2";"a2e8a89bde98eabeee9f915e75eb9c16"
"722";"2";"21ba1b3422cfd037b477126efde24289";NULL;"49";"1";NULL;"2013-05-07 10:56:47";"2";"32e04573c001782153251d56f5fa6e95"
"741";"2";"ff1cdec8eab58fcce1b0fe48cd9c61bf";NULL;"6";"0";NULL;"2013-05-13 14:42:37";"2";"8cf9c0796ba04f99994b2a9b03da9d9b"
"742";"1";"Gerat wird entkälkt";"- Andi";"49";"0";"2013-05-13 16:55:08";"2013-05-13 14:51:35";"2";"b9033d0b97def639b3d426910396dae8"
"743";"1";"Overtime Bässu";"Bässu wos im Ice Rage immer verkackt!";"6";"0";"2013-06-04 18:21:55";"2013-05-17 13:56:31";"2";"388dc82a2a642c59816e52bbcd24801b"
"756";"2";"bda9c5488c276a52803ef1eeac3a0c24";NULL;"49";"0";NULL;"2013-05-29 11:35:19";"2";"6b00a9113553884f4d1370d728f6ea6a"
"757";"1";"Grüäsäch Herr Moser";"Dr Andi im Peking Restaurant";"6";"0";"2013-05-29 16:21:22";"2013-05-29 13:42:04";"2";"2fc9038226e0ec5f2c50eabb47ce397f"
"759";"1";"Werner@Skype: Meri";"Vertipper ;)";"49";"0";NULL;"2013-06-04 13:42:12";"2";"c450bf477989ac946f63543c5c71b295"
"760";"2";"d1f79d2fc5179dcf9216a50da3f3564a";NULL;"49";"0";NULL;"2013-06-25 12:52:18";"2";"01458d2e51509cbc913850aaa39ba213"
"761";"1";"Werner: Wo göht er ga zmittag ässe?";"Wenn das Wasser mal wieder alle ist...";"50";"0";NULL;"2013-06-28 08:54:32";"2";"ce8c51c9fb8c00febe2060fdfca52d7d"
"762";"2";"cc75154ddfbe297e980c6c8bc3cf6062";NULL;"9";"0";NULL;"2013-06-28 14:32:08";"2";"5c5fbc808ed835ed09969ebba5acaaa2"
"763";"2";"dbe1c2045e8eb6904f28bcbc1630f7ae";NULL;"9";"0";NULL;"2013-06-28 14:34:05";"2";"6a50e1ee1e0798d21ed123a800a31535"
"765";"1";"Bisch du e Möisebussard ?";;"39";"0";NULL;"2013-07-03 09:34:22";"2";"b23d8dbffedd8a7e6ea39a4a8d34dede"
"795";"2";"a794b73f7315cdc8fa2d7fabfa232b53";;"49";"0";"2014-02-17 13:35:08";"2013-08-06 08:23:19";"2";"f9eab30a93faafaa70271bebef8b21f0"
"799";"1";"Alexander Kmeth";"Ohne Worte!";"6";"0";NULL;"2013-09-12 15:14:29";"2";"536531dcb7765c4618e8745cb46f59a3"
"800";"1";"Grüezi Frau Herrgott,
Bitte um Beachtung des Kommentars von Herr Hulliger. 
";"Danke und freundliche Grüsse 
E. Griesser";"6";"0";NULL;"2013-09-13 13:41:58";"2";"3cb86a1a02ac8773af50c1444e84ae72"
"801";"1";"In AX 2009 stürzt de dr Batch nümme ab...";"Usred für Trännu Batch Problem.";"6";"0";"2013-09-19 11:26:19";"2013-09-13 13:43:00";"2";"b13e1ff595081b1081f2510bb66c8162"
"803";"1";"Ja, das ist ein strategischer Kunde!";"- Ruedi";"6";"0";NULL;"2013-09-26 07:43:20";"2";"6b840a79351ade4d75c5f243b3a09d7f"
"804";"2";"d0b651ef26f6a0d165828f4170005821";NULL;"51";"0";NULL;"2013-09-26 08:02:48";"2";"481d6dfb0735c66a1409b83c617b74ea"
"805";"1";"sexy";;"50";"0";NULL;"2013-09-26 08:23:06";"2";"70abe1b4de8e9d62a86b2303d3bbe545"
"806";"1";"Entwicklungs-Standards von Seiten PTV SWISS gibt es keine";"Verbatim aus FLO's IPA";"49";"0";"2013-10-21 12:07:41";"2013-10-09 12:59:13";"2";"cb99d826cf4520e23dc02b533462b00b"
"811";"1";"I schicke der es Mail FLY";"Mi Chef. Är meint FYI het's aber gloubs nid verstande...";"8";"0";"2014-01-15 14:04:04";"2014-01-10 21:17:50";"2";"4edd009f56778f18dcbcac195a26f386"
"812";"2";"7b6fb0d1d1ee7bb706e4bcfed42c6ec7";NULL;"14";"0";NULL;"2014-02-03 11:52:47";"2";"a56a90060d5c55706d7c1ec919566831"
"813";"2";"c96e5414acb9fc8a4fa72da1452817f5";NULL;"6";"0";NULL;"2014-02-06 14:55:10";"2";"15e845903b17a6d92d164a569c6f71fe"
"814";"2";"508a38298a221852e59b572d045e9ba0";NULL;"8";"0";NULL;"2014-02-07 15:06:54";"2";"799b1dbb567c613c9dd5d6506fa45f2d"
"815";"2";"3035f23545ee6688afd306c21c3f4a24";NULL;"8";"0";NULL;"2014-02-17 00:07:09";"2";"ac7d0e49f1a8bf98815669997c7f1466"
"816";"2";"66db792297b30d7cd01a43391664c89e";NULL;"8";"0";NULL;"2014-02-17 00:08:04";"2";"0a012a90f26eedd592b1e121f26f63d4"
"817";"2";"778f4ce8e3838ef7c721bff9d07ac593";NULL;"8";"0";NULL;"2014-02-17 00:09:19";"2";"bb11e4c9f25e57ae7f2e09dda3c9cbae"
"818";"2";"d9ce1f00d6f5cec9145bf37628fa36a9";NULL;"14";"0";NULL;"2014-02-24 11:29:57";"2";"0dff29565ecc5b2739173f3f1aaf5bfd"
"819";"1";"Wenis nid versta ischs nid guet.";"- Ruedi";"49";"0";"2014-02-28 17:29:07";"2014-02-28 15:26:41";"2";"9e70093dda11617752359dadd97a6731"
"820";"1";"Googel ist in der klaud geboren und darum wolkig leicht!";"- Ruedi";"49";"0";NULL;"2014-05-12 12:10:52";"2";"254b8648fa4b3ae6bf9c8fb3723a4ee5"
"821";"2";"9b92b175c9b91e7b83070033f7635e13";NULL;"14";"0";NULL;"2014-05-19 11:29:53";"2";"0693fdd98843981b01c9e2a66cf8b1f1"
"822";"2";"0ba814d5ba6c194b8f3de4b54f4ad861";NULL;"6";"0";NULL;"2014-05-26 12:12:50";"2";"d1e6867a56b647fa6ba3b6ff7d5a6ce4"
"823";"1";"Jakes Priorit&amp;auml;ten";"[11:48:12] Jacob Brunner, Xplanis AG: essen ist heute nicht besonders hoch auf meiner prio-liste :) sieht etwa so aus:
1.) arbeiten (homeoffice)
2.) weinen mit optionalem stcklihzsten
3.) sterben
4.) sex
5.) siehe 4
6.) siehe 4
7.) mehr weinen
8.) essen";"49";"0";"2014-09-22 13:43:00";"2014-09-22 09:57:49";"2";"9d10107ad25da4dbe7d7ed96535efc81"
"827";"1";"Yes, we need to disc&amp;ouml;sh";"engl. f&amp;uuml;r mir luege denne";"49";"0";"2015-09-25 12:30:16";"2015-09-25 10:29:10";"2";"a14bbe7aa18ca727c5729f8f19eb4a0b"
"828";"1";"Eine &quot;Mike or Buy&quot; Analyse";;"14";"0";"2015-09-25 13:43:18";"2015-09-25 11:42:55";"2";"06dd336a0b5066e0013b6b1060e5f671"
"829";"1";"Klammer nicht zu";;"49";"0";NULL;"2015-10-01 07:41:02";"2";"9e15ad9d6e1d41baf32be58a72695a82"
"52";"Ooooh jaah!!!";"502";"6";"0";NULL;"2012-01-04 22:43:00";"2";"b6ed0fb6053cda3a5d15892dd6d2fb91"
"53";"Nei es isch LP-Köbi!";"518";"6";"0";NULL;"2012-01-07 14:27:00";"2";"c9ce8c8f4a9412750d3d9783d0a5d8ed"
"54";"I weiss aber der Flo hets so wöue";"518";"8";"0";NULL;"2012-01-05 20:13:00";"2";"4de1121cb947e66ae5cbc695e6c66e94"
"55";"Es isch LP-Andi";"518";"9";"0";NULL;"2012-01-05 18:23:00";"2";"c733f9956c1edb5406d77de680c3bbee"
"56";"Basils BSH het g'failet. Doch dr Andra het mit eirä Zilä Code repariert!";"519";"6";"0";NULL;"2012-01-06 06:16:00";"2";"6f5052aa4e87ce646b58462369ec46bb"
"57";"Dr Ändu. Ih verstahs nid!";"524";"6";"0";NULL;"2012-01-05 15:18:00";"2";"582dfbc8ef296a970684fe912c6f9021"
"58";"Giséle Recordon";"529";"8";"0";NULL;"2012-01-05 15:28:00";"2";"bf7b78a00b92b5c16a404d9c9bedfc3b"
"59";"Learn to plan";"530";"8";"0";NULL;"2012-01-05 15:27:00";"2";"b77efe37cccc3df6dda8bc90f177aca6"
"60";"Är geit doch nur bis 6,7 ;-)";"536";"8";"0";NULL;"2012-01-07 21:36:00";"2";"504d451c3ba3ec2ae3645b8afa33b24b"
"61";"Epic Fail
Obwou ärs no fascht het gschafft!";"539";"6";"0";NULL;"2012-01-06 06:09:00";"2";"117e2f2d7f62e2dbf0e73ddd4992c8e3"
"62";"Episch";"540";"8";"0";NULL;"2012-01-05 20:14:00";"2";"b955d221dc47099ce00f570631fac3e0"
"63";"Haha, dr BO Drachä";"544";"6";"0";NULL;"2012-01-07 14:28:00";"2";"461bfb7f867bccbcae800bc99acb741e"
"64";"Das isch am Vitality-Day vor ptv gsi... Mir si im car am pokere gsi und d'Nina seit statt All-In Full-In.";"544";"8";"0";NULL;"2012-01-07 07:54:00";"2";"9d2a6d5ca6e29f8e7ad6066e5e299378"
"65";"Ih ha ke Plan! ;-)";"544";"6";"0";NULL;"2012-01-06 05:22:00";"2";"c36913630b3d61866fa66683a9b8c763"
"66";"Isch scho chli euter weiss nid ob der dä kennet... Der Jake sicher";"544";"8";"0";NULL;"2012-01-05 20:11:00";"2";"170a64fdb310ce1d0e92392b6687ec90"
"67";"LOL";"548";"14";"0";NULL;"2012-01-15 12:02:00";"2";"db04e4662f9cf3fb3635efc2286ea13b"
"68";"Mi per het sech grad e fiat kouft dört chasch das o....";"550";"8";"0";NULL;"2012-01-07 21:15:00";"2";"3a82cfdea63480bd9af0d9657732f759"
"69";"C -> C++ -> C# -> C Herr Baly";"563";"15";"0";NULL;"2012-01-10 10:14:00";"2";"780ae58bcd32202d8466a58642314fba"
"70";"Gandi=Grantigä-Andi";"571";"6";"0";NULL;"2012-01-10 21:59:00";"2";"d662f355eaa66ed0b72086d534307545"
"71";"Looserandi
Winnerandi
Gängschterandi";"571";"8";"0";NULL;"2012-01-10 11:45:00";"2";"72128c7036a6daa11c9ea4549ba990d1"
"72";"Weni dä mau gseh, geit er druf! xD";"581";"6";"0";NULL;"2012-01-11 09:29:00";"2";"ad29d6476b9a77c04abdc2a91f79f3ac"
"73";"Wie Floh immer sagt";"583";"14";"0";NULL;"2012-01-12 05:19:00";"2";"bbac1f6a8ad3934789252f2c331b74a8"
"74";"Nein. Bei der Bitziusstrasse hat ein Typ das PTV Schild mit ""Atomics"" getagt";"584";"6";"0";NULL;"2012-01-22 02:30:00";"2";"7a76346c8258047541427a39b648c043"
"75";"Sind deinen Ski?";"584";"14";"0";NULL;"2012-01-12 05:18:00";"2";"b5bfe2d76bc9dc8bc9caf6a9ed80b957"
"76";"Oder auch
Gira und Tschira";"590";"14";"0";NULL;"2012-01-15 12:01:00";"2";"03103ec230f7d62173681fd686242ab7"
"77";"Das muesch nid gseh ha, das muesch ghört ha...";"591";"8";"0";NULL;"2012-01-22 14:00:00";"2";"78a90d227cc5d7b138e54fb204720ead"
"78";"Fuck, hätti huere gärn gseh!!!";"591";"6";"0";NULL;"2012-01-22 02:35:00";"2";"67d555f17a3d624fd248d025a778b347"
"79";"Ach so";"594";"14";"0";NULL;"2012-01-18 19:36:00";"2";"796d8364ca892f1cb8b3a1c95b9945e0"
"80";"Ah dä Dealer im Cäsu isch eifach nume Pflicht!";"596";"6";"0";NULL;"2012-01-20 17:25:00";"2";"d841c82254f3a2070e4d92b6801de6bc"
"81";"winner winner chicken dinner money boy swagger rap";"596";"6";"0";NULL;"2012-01-19 22:55:00";"2";"dbb488ac2ce16cd1a183085493aeadc2"
"82";"Ungeschlagen im sig, sag, sug i fahre = Andrea";"597";"8";"0";NULL;"2012-01-22 13:59:00";"2";"1ffef19cc0f008ead17ff2fad3ccc51e"
"83";"Oooh Jah! Ih fahrä!!!";"597";"6";"0";NULL;"2012-01-22 02:30:00";"2";"4205401a55aa0bf0b540f61132c1a9ab"
"84";"LOL!! Typisch von SPOC Lüüt";"599";"14";"0";NULL;"2012-01-20 17:56:00";"2";"52df0edd927d6aac00bd3c65ab81a247"
"85";"Ah, wenn wir etwas unangebrachtes gesagt haben?!?
Episch";"601";"6";"0";NULL;"2012-01-21 19:22:00";"2";"065652f869f2ee9c0ccb2dce703355bc"
"86";"Und die varianten:
Seba, Bitte!
Jake, Bitte!
Andrea, Bitte!
...";"601";"14";"0";NULL;"2012-01-21 14:47:00";"2";"1f35e1f2ea6d4f1d305d0b4e1cc9e7cf"
"87";"Kantonspolizei Bern, Moser";"603";"8";"0";NULL;"2012-01-28 20:01:00";"2";"0babfd635244e38f33a93e958419186b"
"88";"Chills mau!";"605";"6";"0";NULL;"2012-01-22 22:01:00";"2";"be2ea43fa1b61637127b8e3e81a3767b"
"89";"Lol";"606";"14";"0";NULL;"2012-01-24 05:24:00";"2";"847e62341652122dbc5c24a88ebbee03"
"90";"PTV Swiss..... Age Schmid";"606";"14";"0";NULL;"2012-02-25 05:51:00";"2";"adca71de36ec904f85ec1c3f65e9846c"
"91";"es isch blick am abend...";"607";"9";"0";NULL;"2012-01-23 18:11:00";"2";"d577d52e78fd961dcdd4c4c83b8ebd83"
"92";"Nice";"609";"14";"0";NULL;"2012-01-24 05:24:00";"2";"f373597da2ac286396797838ed9b3b70"
"93";"Ges- Torben";"612";"14";"0";NULL;"2012-01-24 20:05:00";"2";"2285d62c4afac769737bd68e32a9fe98"
"94";"-Sone Löiier!
-Löiig";"613";"6";"0";NULL;"2012-01-24 20:12:00";"2";"982a90f1c3eaa2a135954b3f5373973f"
"95";"Word!";"638";"14";"0";NULL;"2012-01-30 05:32:00";"2";"1e0d05daf41d6bd75ebdca4f13ea86dd"
"96";"Haha! Episch!";"642";"6";"0";NULL;"2012-01-31 10:10:00";"2";"a9718f796ab09aee6957ed3231be4e76"
"97";"Venesvanner";"661";"8";"0";NULL;"2012-02-06 22:29:00";"2";"def4f42525d7f860e474ea266badec71"
"98";"Aaaah. Es ist immer so schön warm!";"663";"6";"0";NULL;"2012-02-09 12:01:00";"2";"48594a0a3bf8afcf839f5b4c2f565fd4"
"99";"Bei secure post auch! ;-)";"663";"14";"0";NULL;"2012-02-09 14:45:00";"2";"af83445f7287bd8cda544377340ebc0a"
"100";"Oder:
-Pötti Mc Ött
-Ötti Mc Pött";"667";"6";"0";NULL;"2012-02-14 13:00:00";"2";"9ba0bb7003a5d0f7ad1e8fece22b8f1e"
"101";"Ist der Ottiger von CBB?:-)";"667";"14";"0";NULL;"2012-02-19 14:53:00";"2";"093c9cc7f7512423f4594c38f35220e4"
"102";"Haha. Nein. xD
Es ist ein Aufruf zum rauchen.";"667";"6";"0";NULL;"2012-02-19 16:00:00";"2";"d14bb0c9a5083ee2325fed2b56b35108"
"103";"So viu Episch uf einisch... ;-)";"669";"6";"0";NULL;"2012-03-06 15:34:00";"2";"a93735471eb43c7c81d5e9add1d0f1b0"
"104";"Email von Judith an Seba, nachdem er ein Jira kommentiert hat.
Ohne begrussung";"669";"14";"0";NULL;"2012-03-06 15:35:00";"2";"a34a0d9266d74db4300357878d6a5433"
"105";"1 Wiche speter.... Keilrieme grisse";"670";"8";"0";NULL;"2012-04-06 16:59:00";"2";"24eefad8a15ff906aecd7407cd1c7597"
"106";"Aaahh ja, jetzt weisi wo... xD";"671";"6";"0";NULL;"2012-05-11 09:35:00";"2";"d1fcd059a35bc8123147ec5906f31f17"
"107";"Stimmt doch ";"678";"49";"0";NULL;"2013-04-18 12:38:00";"2";"8581a7ab5c3fd426408f0cec6dd882b0"
"108";"Gueti Idee! Aaah nei...";"680";"6";"0";NULL;"2013-04-16 18:30:00";"2";"7dbb7a41097102f2c2f8c039d63ecae5"
"109";"Die beschti Idee ds Läder isch när wie Anke";"680";"8";"0";NULL;"2013-04-19 15:36:00";"2";"551da303ea877cc9453103450d7ed736"
"110";"Isch klar... ;-)";"680";"6";"0";NULL;"2013-04-19 16:10:00";"2";"fba8a5f2fa6df29eb416a4f82aa66121"
"114";"Usfüehre, marsch";"698";"8";"0";NULL;"2013-05-06 07:41:52";"2";"0b45672fffe2656d38bf3e22fa372303"
"125";"TOP !";"700";"39";"0";NULL;"2013-05-07 09:03:28";"2";"eca0142905cb42c073c884c652dac7db"
"126";"Ahahah! Ist es Judiths Sohn, gau?";"701";"14";"0";NULL;"2013-05-13 16:06:01";"2";"f133c63619e88bbc16cd25e0db40e16a"
"127";"LOL! Wer war der Künstler?";"724";"14";"0";NULL;"2013-05-13 16:08:16";"2";"095f5f0ce0ecb56ddadb18af7581dd29"
"128";"Dies hat Elia einmal im Paint erstellt als Beispiel für ein neues Xplanis Logo...";"724";"6";"0";NULL;"2013-05-13 16:24:49";"2";"da22e8fb4efd465e534ca51bf8c7f3aa"
"129";"Haha, Jah ;-)";"701";"6";"0";NULL;"2013-05-13 16:29:24";"2";"7b7343a67e6d889964d4873ca4eb2ae2"
"134";"niemand weiss wie silvia das geschafft hat... danke.bmp";"756";"49";"0";NULL;"2013-05-29 13:54:33";"2";"9ffa659484e783a8ecf9605094c93ac0"
"135";"????????BA?";"712";"49";"0";NULL;"2013-06-11 12:13:49";"2";"b63009cb256e5e6586dada588c3d46af"
"136";"Scheiss Konami Code";"712";"6";"0";NULL;"2013-06-11 12:39:53";"2";"b37c2821ad1816f1eadc40a258f563a9"
"137";"&quot;Fele la mis form la si&quot;
wi wärs mit nei?";"760";"49";"0";NULL;"2013-06-25 12:52:47";"2";"f66cf1dd8fd31b1347467c125bd19189"
"138";"Jedes mau!";"761";"6";"0";NULL;"2013-06-28 09:02:27";"2";"264fd5047360d2b717d71a60faed13a7"
"139";"Glas wurde nicht versiegelt...";"662";"8";"0";NULL;"2013-06-28 09:09:19";"2";"250ed10b5a388077d19c7984c583cffd"
"147";"Typisch Dütsch!";"799";"14";"0";NULL;"2013-09-13 06:39:35";"2";"d50bcf67a4cfa5d36197993fca9dbe6e"
"148";"Von der Firma Peschtalozzi und Ko.age :D
";"800";"14";"0";NULL;"2013-09-13 14:53:43";"2";"23b88f2cf7796ea4aae107a9f1d46ebf"
"149";"Der ottiger isch scho nid schlächt...";"679";"8";"0";NULL;"2013-09-20 19:27:22";"2";"e4b708b11c8e567b0cb0474b90cea42e"
"150";"Übrigens seit das mi nöi chef o... ;)";"542";"8";"0";NULL;"2013-09-20 19:33:19";"2";"440891c3f0418a1d9d654e26109e0bcb"
"151";"Soooo episch!";"762";"8";"0";NULL;"2013-09-20 19:44:11";"2";"ab70e6c4582fc835a3be19ec594a079c"
"152";"Der Denker";"700";"8";"0";NULL;"2013-09-20 19:45:28";"2";"c4facc3d814a846e22cf6ee21ba563b3"
"153";"Der Kiffer";"804";"51";"0";NULL;"2013-09-26 08:07:05";"2";"50622c2ad62bdd2c59216f1ce1c7b501"
"154";"Banane ?";"763";"39";"0";NULL;"2013-09-26 10:13:07";"2";"e2cf3dacbd039dd6c6df8f25684cae9a"
"155";"Welcher Kunde ist das nicht??";"803";"8";"0";NULL;"2013-10-19 11:41:21";"2";"070816f7b897a6e1bf5389b969d31ad3"
"156";"Weitere Produkte aus dem Hause Ruedi:
LPRoute
DimaDispatch
RouteLogistik
TourKomm
eClusterPlatform
StrategieSmart
PTVKommCluster
StandardPlatform
StandardLogistik
NaviMarket
LogistikCluster
PlatformStandort
MarketPlatform
";"741";"49";"1";NULL;"2013-11-04 09:36:29";"2";"c80047d9bf8a5ab20cc14696b9f4ddff"
"157";"Weitere produkte:
LPRoute, DimaDispatch, RouteLogistik, TourKomm, eClusterPlatform, StrategieSmart, PTVKommCluster, StandardPlatform, StandardLogistik, NaviMarket, LogistikCluster, PlatformStandort, MarketPlatform, CargoDima, OrderPlatform, xSalesStrategi";"741";"49";"1";NULL;"2013-11-04 09:38:43";"2";"66fe8b38b325c8013a9f4cc4d4cb656a"
"158";"Pestasupport griesser vor pestalozzi vom support vor ag griesser?";"800";"49";"0";NULL;"2013-11-15 08:25:25";"2";"facc0ea3dc7c9391a9379fbeea4c5272"
"159";"????????BA

immerno kaputt";"712";"49";"0";NULL;"2013-11-15 08:26:42";"2";"d9e03e232460553fdd2dfbe582b314d4"
"160";"Verstani nid?!?";"811";"6";"1";NULL;"2014-01-13 10:03:49";"2";"88766ea45785669b6a03fbee750d522f"
"161";"&gt; Är meint FIY
nid eher FYI? :D";"811";"49";"1";NULL;"2014-01-13 10:13:53";"2";"183e6737267d5b099c744fa0ebb7c014"
"162";"Epische Email von Sebastian Wehowski!

Sollte noch jemand auf der Liste fehlen, z.B. der Hausmeister, :DDD
";"812";"14";"0";NULL;"2014-02-03 11:54:28";"2";"3753e2c8197cd788434b7a6c42f05739"
"163";"Seba so guuuut!!!! S U P E R!!! ";"812";"51";"0";NULL;"2014-02-03 12:05:43";"2";"156ab5843d037c950c21bd59db7b6c9c"
"164";"wow :D";"812";"49";"1";NULL;"2014-02-03 12:06:16";"2";"1fddb09f77ee155df5a9ad10ecfe9b17"
"165";"&gt; gerne eine mail an mich oder auch an alle
Ich kann nicht mehr ?";"812";"49";"0";NULL;"2014-02-03 12:15:07";"2";"519ed7a9b781a89eb37285db0ad391cb"
"166";"soo episch :'D";"795";"9";"0";NULL;"2014-02-06 16:07:54";"2";"7d76887526aafd7053e7c4be6d4c62f7"
"167";"Offizielles Textbeispiel auf der Post Homepage für den Muttertag....";"814";"8";"0";NULL;"2014-02-07 15:07:58";"2";"2f6a4f05bddac84493240b94835b33a4"
"168";"Calculation Win";"816";"6";"0";NULL;"2014-02-17 07:39:44";"2";"4f0834074f815a5f1bdd6dfd950d23d4"
"169";"Durchschnittliche xPlanis qualität";"813";"49";"0";NULL;"2014-02-17 11:28:43";"2";"debcccdc546743acb676e6461b74e786"
"170";"Du bist Meister!";"816";"14";"0";NULL;"2014-02-18 07:59:03";"2";"63b01056b792767d0ffb2d343c9d1e13"
"171";"Pestalozzi und Co. A-Ge!";"818";"14";"0";NULL;"2014-02-24 11:30:43";"2";"80e7108f29e559c3ca9c8ec6fea10aa0"
"172";;"821";"14";"1";NULL;"2014-05-19 11:31:30";"2";"d9ac4d85c95886ef0990a4d725585385"
"173";;"821";"49";"1";NULL;"2014-05-19 11:50:07";"2";"5331e96aa2ea64a88013a58ae5a535f6"
"174";"Jira Fail. WTF";"822";"6";"0";NULL;"2014-05-26 12:13:14";"2";"daa1b8acef517b6ad67bb5153de9eac2"
"175";"Fabian ist seit Lange in die PTV... :-D
";"822";"14";"0";NULL;"2014-05-26 12:20:36";"2";"faa4c974564d527bc9503210081ddc08"
"176";"Interne Kommunikation von Kunden in unserem Jira. :-D
";"821";"14";"0";NULL;"2014-05-26 12:22:29";"2";"81ec26ff10747de1bd329fae0b245ab2"
"177";"nidemal 13:37... sone fake!!";"822";"49";"0";NULL;"2014-08-29 07:40:16";"2";"8c1af2b5cf76dbe2efd5330859ca8013"
"50";"mschlapbach@gmail.com";;"Matthias";"Schlapbach";"34b61a5024efbcdc69cb6efc2ed61187";"2015-09-25 12:33:09";"897200cbb2657be50534752033743583";"2013-06-26 21:05:05";"2";"0";"2013-06-26 19:05:05";"2";"6e615c1f8a1f05fa5d8a39df33046c82"
"6";"florian.hulliger@gmail.com";;"Florian";"Hulliger";"2163dd9a466dc2e50c4595a7f7f4fe72";"2016-03-21 21:47:58";"d7a2d4f8b426015716145c75dcd47d16";"2012-01-04 23:27:00";"1";"0";"2012-01-04 22:27:00";"2";"e56e984251b49ea6a7c0728411555f51"
"8";"andreamarrazzo@hotmail.com";;"Andrea";"Marrazzo";"f8ce9511f5d5d871716820d047335e89";"2016-02-06 22:02:34";"7c28acbb85586172dc6346f01308849d";"2012-01-05 14:09:00";"2";"0";"2012-01-05 13:09:00";"2";"fed729fa71c6703958819ec9cdc98652"
"9";"elia.delfavero@gmail.com";;"Elia";"Del Favero";"1a92468ce0ca524fefbf4face8f5bc23";"2014-09-22 11:58:44";"824a75483adff47869367cf2216328e7";"2012-01-05 15:48:00";"2";"0";"2012-01-05 14:48:00";"2";"47ad7dde351391654ed064e049836f45"
"14";"sebastiano.columbano@ptvswiss.ch";;"Sebastiano";"Columbano";"ffdc9193235bf8836123bd2a0c868536";"2015-10-01 11:48:44";"18ce8559d88c78647607723d809397c3";"2012-01-09 10:48:00";"2";"0";"2012-01-09 09:48:00";"2";"9ec88fd365e00e67a26cf1843361d69e"
"15";"jacob.brunner@ptvswiss.ch";;"Jacob";"Brunner";"ea3cc94cae316f66e6388f52a4dbb21a";"2013-05-06 10:16:20";"93ec214f7fe36f0f6f6f2560eeafd4be";"2011-12-14 10:58:00";"2";"1";"2011-12-14 09:58:00";"2";"8e4e6dbf99a6252aed786d82d2500f92"
"38";"ronny.beck@gmx.ch";;"Ronny";"Beck";"01744c853d8b1c225a0339350c665d5f";"2013-05-06 15:54:55";"aaea696f8c17ee83aa0a6b62574ca578";"2012-02-02 10:30:00";"2";"1";"2012-02-02 09:30:00";"2";"17e607be304ce32b8a19af0f2cc321de"
"39";"b-asil@gmx.ch";;"Basil";"Rakasz";"0sa54f5asg4sag0sa56g40sa5g";"2014-05-13 00:19:50";"f2b192a661e5cd26ccb8a1c1237aa246";"2012-02-06 14:05:00";"2";"0";"2012-02-06 13:05:00";"2";"a8155b324d6f28fbe728634a5b4d3e2a"
"49";"ff@xplanis.com";;"Fabian";"Feller";"42a9adadfa086b98f88f7fbde8c81361";"2016-02-22 16:19:00";"6e1d95e77628c88fbbef349b48bc3600";"2013-04-18 14:56:00";"2";"1";"2013-04-18 12:56:00";"2";"3596acc65e89df9172eb28af66da89e3"
"51";"ho@xplanis.com";;"Hasan";"Oda";"0492832202f351aabc9182a38a4a420b";"2014-09-22 14:18:40";"b2865944e6a2932640ea13ebc2f9ae8c";"2013-09-26 09:45:31";"2";"0";"2013-09-26 07:45:31";"2";"15745a1b2a07e02d7b83d4d2d0b03632"
"52";"pb@xplanis.com";;"Pascal";"Blaser";"36ed83e789e95e37e11879470e61d923";"2015-09-25 14:58:15";"b33c59c390a4a516e52084cc51c76084";"2015-09-25 12:35:08";"2";"0";"2015-09-25 10:35:08";"2";"f5a942919af623f33d6b145ba9f41f1e"
"53";"fabian.feller@xplanis.com";;"F";"F";"55fd20fcc0662bc439442a82fff3dc79";"2016-01-12 12:51:38";"74e9b539c4ba1f9fdb46f4018aeab44d";"2016-01-12 12:47:09";"2";"0";"2016-01-12 11:47:09";"2";"ccc351790ee4a2bfcd9bb983be071691"
